[
  {
    "id": "1",
    "nome": "Permissao",
    "cliente": {
      "nome": "Cliente"
    },
    "cliente_id": "1",
    "licenciado": {
      "nome": "Entidade/Licenciado"
    },
    "licenciado_id": "1",
    "descricao": "Lorem ipsum dolor sit amet, consectetur adipiscing elit. Sed eget urna sagittis, iaculis dolor non, ultricies quam. Class aptent taciti sociosqu ad litora torquent per conubia nostra, per inceptos himenaeos. Fusce lacus risus, volutpat vitae turpis eget, pulvinar ornare ligula. Nunc semper eget leo cursus eleifend. Morbi eu nisl tellus. Nulla eu arcu elit. Duis ullamcorper feugiat varius. Vivamus egestas lobortis tortor, vel vulputate elit interdum a."
  },
  {
    "id": "2",
    "nome": "Permissao 2",
    "cliente": {
      "nome": "Cliente"
    },
    "cliente_id": "1",
    "licenciado": {
      "nome": "Entidade/Licenciado"
    },
    "licenciado_id": "1",
    "descricao": "Lorem ipsum dolor sit amet, consectetur adipiscing elit. Sed eget urna sagittis, iaculis dolor non, ultricies quam. Class aptent taciti sociosqu ad litora torquent per conubia nostra, per inceptos himenaeos. Fusce lacus risus, volutpat vitae turpis eget, pulvinar ornare ligula. Nunc semper eget leo cursus eleifend. Morbi eu nisl tellus. Nulla eu arcu elit. Duis ullamcorper feugiat varius. Vivamus egestas lobortis tortor, vel vulputate elit interdum a."
  },
  {
    "id": "3",
    "nome": "Permissao 3",
    "cliente": {
      "nome": "Cliente"
    },
    "cliente_id": "1",
    "licenciado": {
      "nome": "Entidade/Licenciado"
    },
    "licenciado_id": "1",
    "descricao": "Lorem ipsum dolor sit amet, consectetur adipiscing elit. Sed eget urna sagittis, iaculis dolor non, ultricies quam. Class aptent taciti sociosqu ad litora torquent per conubia nostra, per inceptos himenaeos. Fusce lacus risus, volutpat vitae turpis eget, pulvinar ornare ligula. Nunc semper eget leo cursus eleifend. Morbi eu nisl tellus. Nulla eu arcu elit. Duis ullamcorper feugiat varius. Vivamus egestas lobortis tortor, vel vulputate elit interdum a."
  },
  {
    "id": "4",
    "nome": "Permissao 4",
    "cliente": {
      "nome": "Cliente"
    },
    "cliente_id": "1",
    "licenciado": {
      "nome": "Entidade/Licenciado"
    },
    "licenciado_id": "1",
    "descricao": "Lorem ipsum dolor sit amet, consectetur adipiscing elit. Sed eget urna sagittis, iaculis dolor non, ultricies quam. Class aptent taciti sociosqu ad litora torquent per conubia nostra, per inceptos himenaeos. Fusce lacus risus, volutpat vitae turpis eget, pulvinar ornare ligula. Nunc semper eget leo cursus eleifend. Morbi eu nisl tellus. Nulla eu arcu elit. Duis ullamcorper feugiat varius. Vivamus egestas lobortis tortor, vel vulputate elit interdum a."
  },
  {
    "id": "5",
    "nome": "Permissao 5",
    "cliente": {
      "nome": "Cliente"
    },
    "cliente_id": "1",
    "licenciado": {
      "nome": "Entidade/Licenciado"
    },
    "licenciado_id": "1",
    "descricao": "Lorem ipsum dolor sit amet, consectetur adipiscing elit. Sed eget urna sagittis, iaculis dolor non, ultricies quam. Class aptent taciti sociosqu ad litora torquent per conubia nostra, per inceptos himenaeos. Fusce lacus risus, volutpat vitae turpis eget, pulvinar ornare ligula. Nunc semper eget leo cursus eleifend. Morbi eu nisl tellus. Nulla eu arcu elit. Duis ullamcorper feugiat varius. Vivamus egestas lobortis tortor, vel vulputate elit interdum a."
  },
  {
    "id": "6",
    "nome": "Permissao 6",
    "cliente": {
      "nome": "Cliente"
    },
    "cliente_id": "1",
    "licenciado": {
      "nome": "Entidade/Licenciado"
    },
    "licenciado_id": "1",
    "descricao": "Lorem ipsum dolor sit amet, consectetur adipiscing elit. Sed eget urna sagittis, iaculis dolor non, ultricies quam. Class aptent taciti sociosqu ad litora torquent per conubia nostra, per inceptos himenaeos. Fusce lacus risus, volutpat vitae turpis eget, pulvinar ornare ligula. Nunc semper eget leo cursus eleifend. Morbi eu nisl tellus. Nulla eu arcu elit. Duis ullamcorper feugiat varius. Vivamus egestas lobortis tortor, vel vulputate elit interdum a."
  },
  {
    "id": "7",
    "nome": "Permissao 7",
    "cliente": {
      "nome": "Cliente"
    },
    "cliente_id": "1",
    "licenciado": {
      "nome": "Entidade/Licenciado"
    },
    "licenciado_id": "1",
    "descricao": "Lorem ipsum dolor sit amet, consectetur adipiscing elit. Sed eget urna sagittis, iaculis dolor non, ultricies quam. Class aptent taciti sociosqu ad litora torquent per conubia nostra, per inceptos himenaeos. Fusce lacus risus, volutpat vitae turpis eget, pulvinar ornare ligula. Nunc semper eget leo cursus eleifend. Morbi eu nisl tellus. Nulla eu arcu elit. Duis ullamcorper feugiat varius. Vivamus egestas lobortis tortor, vel vulputate elit interdum a."
  },
  {
    "id": "8",
    "nome": "Permissao 8",
    "cliente": {
      "nome": "Cliente"
    },
    "cliente_id": "1",
    "licenciado": {
      "nome": "Entidade/Licenciado"
    },
    "licenciado_id": "1",
    "descricao": "Lorem ipsum dolor sit amet, consectetur adipiscing elit. Sed eget urna sagittis, iaculis dolor non, ultricies quam. Class aptent taciti sociosqu ad litora torquent per conubia nostra, per inceptos himenaeos. Fusce lacus risus, volutpat vitae turpis eget, pulvinar ornare ligula. Nunc semper eget leo cursus eleifend. Morbi eu nisl tellus. Nulla eu arcu elit. Duis ullamcorper feugiat varius. Vivamus egestas lobortis tortor, vel vulputate elit interdum a."
  }
]